﻿<?xml version="1.0" encoding="UTF-8"?>
<TestRun id="bb73003a-e94c-43ca-9c1b-8ebc50e53534" name="Administrator@A2HONB17D34RMF 2020-04-28 13:07:12" runUser="A2HONB17D34RMF\Administrator" xmlns="http://microsoft.com/schemas/VisualStudio/TeamTest/2010">
  <Times creation="2020-04-28T13:07:12.9299427+07:00" queuing="2020-04-28T13:07:12.9299427+07:00" start="2020-04-28T13:07:12.7733618+07:00" finish="2020-04-28T13:07:13.0935051+07:00" />
  <TestSettings name="default" id="e61111b2-b3d5-4759-be41-dad4361b1614">
    <Execution>
      <TestTypeSpecific />
    </Execution>
    <Deployment runDeploymentRoot="Administrator_A2HONB17D34RMF 2020-04-28 13_07_12" />
    <Properties />
  </TestSettings>
  <Results>
    <UnitTestResult executionId="3c52b010-05bc-4020-9992-62d32b1cafc2" testId="a95e7635-783f-730b-8dc7-a577f42e818d" testName="TestMethod1" computerName="A2HONB17D34RMF" duration="00:00:00.0049199" startTime="2020-04-28T13:07:12.7733618+07:00" endTime="2020-04-28T13:07:12.8152536+07:00" testType="13cdc9d9-ddb5-4fa4-a97d-d965ccfc6d4b" outcome="Passed" testListId="8c84fa94-04c1-424b-9868-57a2d4851a1d" relativeResultsDirectory="3c52b010-05bc-4020-9992-62d32b1cafc2" />
  </Results>
  <TestDefinitions>
    <UnitTest name="TestMethod1" storage="d:\bitbucket\otosales\otosalesapi\apiotosales\otosales.unittest\bin\debug\otosales.unittest.dll" id="a95e7635-783f-730b-8dc7-a577f42e818d">
      <Execution id="3c52b010-05bc-4020-9992-62d32b1cafc2" />
      <TestMethod codeBase="D:\BitBucket\Otosales\OtosalesAPI\APIOtosales\Otosales.UnitTest\bin\Debug\Otosales.UnitTest.dll" adapterTypeName="Microsoft.VisualStudio.TestTools.TestTypes.Unit.UnitTestAdapter" className="Otosales.UnitTest.UnitTest1" name="TestMethod1" />
    </UnitTest>
  </TestDefinitions>
  <TestEntries>
    <TestEntry testId="a95e7635-783f-730b-8dc7-a577f42e818d" executionId="3c52b010-05bc-4020-9992-62d32b1cafc2" testListId="8c84fa94-04c1-424b-9868-57a2d4851a1d" />
  </TestEntries>
  <TestLists>
    <TestList name="Results Not in a List" id="8c84fa94-04c1-424b-9868-57a2d4851a1d" />
    <TestList name="All Loaded Results" id="19431567-8539-422a-85d7-44ee4e166bda" />
  </TestLists>
  <ResultSummary outcome="Completed">
    <Counters total="1" executed="1" passed="1" failed="0" error="0" timeout="0" aborted="0" inconclusive="0" passedButRunAborted="0" notRunnable="0" notExecuted="0" disconnected="0" warning="0" completed="0" inProgress="0" pending="0" />
  </ResultSummary>
</TestRun>